{
    "KPlugin": {
        "Description": "Settings Plugins",
        "Description[ar]": "إعدادات الملحقات",
        "Description[az]": "Ayarlar plaqinləri",
        "Description[bg]": "Приставки за настройки",
        "Description[ca@valencia]": "Configuració dels connectors",
        "Description[ca]": "Configuració dels connectors",
        "Description[cs]": "Moduly Nastavení",
        "Description[de]": "Einstellungsmodul",
        "Description[en_GB]": "Settings Plugins",
        "Description[es]": "Preferencias de complementos",
        "Description[eu]": "Ezarpen pluginak",
        "Description[fi]": "Asetusliitännäiset",
        "Description[fr]": "Modules externes de configuration",
        "Description[ia]": "Plugins de preferentias",
        "Description[it]": "Estensioni per le impostazioni",
        "Description[ka]": "პარამეტრების დამატებები",
        "Description[ko]": "설정 플러그인",
        "Description[nl]": "Plug-ins voor instellingen",
        "Description[pl]": "Wtyczki ustawień",
        "Description[pt]": "'Plugins' de Configuração",
        "Description[pt_BR]": "Plugin de configuração",
        "Description[ru]": "Настройка модулей",
        "Description[sl]": "Nastavitve vstavkov",
        "Description[sv]": "Inställningsinsticksprogram",
        "Description[ta]": "செருகுநிரல்களுக்கான அமைப்புகள்",
        "Description[tr]": "Ayarlar Eklentisi",
        "Description[uk]": "Додатки параметрів",
        "Description[x-test]": "xxSettings Pluginsxx",
        "Description[zh_CN]": "设置插件",
        "Icon": "preferences-plugin",
        "Name": "Plugins",
        "Name[af]": "Inprop modules",
        "Name[ar]": "الملحقات",
        "Name[az]": "Plaqinlər",
        "Name[bg]": "Приставки",
        "Name[br]": "Lugantoù",
        "Name[bs]": "Dodaci",
        "Name[ca@valencia]": "Connectors",
        "Name[ca]": "Connectors",
        "Name[cs]": "Moduly",
        "Name[cy]": "Ategion",
        "Name[da]": "Plugin",
        "Name[de]": "Module",
        "Name[el]": "Πρόσθετα",
        "Name[en_GB]": "Plugins",
        "Name[eo]": "Kromaĵoj",
        "Name[es]": "Complementos",
        "Name[et]": "Pluginad",
        "Name[eu]": "Pluginak",
        "Name[fa]": "وصله‌ها",
        "Name[fi]": "Liitännäiset",
        "Name[fr]": "Modules externes",
        "Name[fy]": "Plugins",
        "Name[ga]": "Breiseáin",
        "Name[gl]": "Complementos",
        "Name[he]": "תוספים",
        "Name[hu]": "Bővítőmodulok",
        "Name[ia]": "Plug-ins",
        "Name[is]": "Íforrit",
        "Name[it]": "Estensioni",
        "Name[ja]": "プラグイン",
        "Name[ka]": "დამატებები",
        "Name[kk]": "Плагин модульдері",
        "Name[km]": "កម្មវិធី​ជំនួយ",
        "Name[ko]": "플러그인",
        "Name[lt]": "Papildiniai",
        "Name[lv]": "Spraudņi",
        "Name[mai]": "प्लगिन",
        "Name[mk]": "Приклучоци",
        "Name[mr]": "प्लगइन्स",
        "Name[ms]": "Plugin",
        "Name[nb]": "Programtillegg",
        "Name[nds]": "Modulen",
        "Name[ne]": "प्लगइन",
        "Name[nl]": "Plug-ins",
        "Name[nn]": "Programtillegg",
        "Name[pa]": "ਪਲੱਗਇਨਾਂ",
        "Name[pl]": "Wtyczki",
        "Name[pt]": "'Plugins'",
        "Name[pt_BR]": "Plugins",
        "Name[ro]": "Extensii",
        "Name[ru]": "Модули",
        "Name[se]": "Lassemoduvllat",
        "Name[sk]": "Moduly",
        "Name[sl]": "Vstavki",
        "Name[sr@ijekavian]": "Прикључци",
        "Name[sr@ijekavianlatin]": "Priključci",
        "Name[sr@latin]": "Priključci",
        "Name[sr]": "Прикључци",
        "Name[sv]": "Insticksprogram",
        "Name[ta]": "செருகுநிரல்கள்",
        "Name[th]": "โปรแกรมเสริม",
        "Name[tr]": "Eklentiler",
        "Name[ug]": "قىستۇرما",
        "Name[uk]": "Додатки",
        "Name[uz@cyrillic]": "Плагинлар",
        "Name[uz]": "Plaginlar",
        "Name[wa]": "Tchôkes-divins",
        "Name[x-test]": "xxPluginsxx",
        "Name[zh_CN]": "插件",
        "Name[zh_TW]": "外掛程式",
        "ServiceTypes": [
            "KCModule"
        ]
    },
    "X-DocPath": "kmail2/index.html",
    "X-KDE-Weight": 600
}
