{
    "KPlugin": {
        "Description": "Security & Privacy Settings",
        "Description[ar]": "إعدادات الأمن والخصوصيّة",
        "Description[az]": "Təhlükəsizlik və məxfilik ayarları",
        "Description[bg]": "Настройки на сигурността и лични данни",
        "Description[ca@valencia]": "Configuració de la seguretat i privadesa",
        "Description[ca]": "Configuració de la seguretat i privadesa",
        "Description[cs]": "Nastavení soukromí a zabezpečení",
        "Description[de]": "Sicherheit und Privatsphäre",
        "Description[en_GB]": "Security & Privacy Settings",
        "Description[es]": "Preferencias de seguridad y privacidad",
        "Description[eu]": "Segurtasun eta pribatutasun ezarpenak",
        "Description[fi]": "Tietoturva- ja yksityisyysasetukset",
        "Description[fr]": "Configuration pour la sécurité et la confidentialité",
        "Description[ia]": "Preferentias de securitate & confidentialitate",
        "Description[it]": "Impostazioni sicurezza e privacy",
        "Description[ka]": "უსაფრთხოება და კონფიდენციალურობის პარამეტრები",
        "Description[ko]": "보안과 개인 정보 설정",
        "Description[nl]": "Beveiligings- en privacy-instellingen",
        "Description[pl]": "Ustawienia bezpieczeństwa i prywatności",
        "Description[pt]": "Configuração de Segurança e Privacidade",
        "Description[pt_BR]": "Configurações de segurança e privacidade",
        "Description[ru]": "Настройка безопасности",
        "Description[sl]": "Nastavitve varnosti in zasebnosti",
        "Description[sv]": "Inställningar för säkerhet och integritet",
        "Description[ta]": "பாதுகாப்பு & தனியுரிமை அமைப்புகள்",
        "Description[tr]": "Güvenlik ve Gizlilik Ayarları",
        "Description[uk]": "Параметри безпеки і конфіденційності",
        "Description[x-test]": "xxSecurity & Privacy Settingsxx",
        "Description[zh_CN]": "安全和隐私设置",
        "Icon": "security-high",
        "Name": "Security",
        "Name[af]": "Sekuriteit",
        "Name[ar]": "الأمن",
        "Name[az]": "Təhlükəsizlik",
        "Name[be]": "Бяспека",
        "Name[bg]": "Сигурност",
        "Name[br]": "Surentez",
        "Name[bs]": "Sigurnost",
        "Name[ca@valencia]": "Seguretat",
        "Name[ca]": "Seguretat",
        "Name[cs]": "Bezpečnost",
        "Name[cy]": "Diogelwch",
        "Name[da]": "Sikkerhed",
        "Name[de]": "Sicherheit",
        "Name[el]": "Ασφάλεια",
        "Name[en_GB]": "Security",
        "Name[eo]": "Sekureco",
        "Name[es]": "Seguridad",
        "Name[et]": "Turvalisus",
        "Name[eu]": "Segurtasuna",
        "Name[fa]": "امنیت",
        "Name[fi]": "Turvallisuus",
        "Name[fr]": "Sécurité",
        "Name[fy]": "Feiligens",
        "Name[ga]": "Slándáil",
        "Name[gl]": "Seguranza",
        "Name[he]": "אבטחה",
        "Name[hu]": "Biztonság",
        "Name[ia]": "Securitate",
        "Name[is]": "Öryggi",
        "Name[it]": "Sicurezza",
        "Name[ja]": "セキュリティ",
        "Name[ka]": "უსაფრთხოება",
        "Name[kk]": "Қауіпсіздік",
        "Name[km]": "សុវត្ថិភាព",
        "Name[ko]": "보안",
        "Name[lt]": "Saugumas",
        "Name[lv]": "Drošība",
        "Name[mai]": "सुरक्षा",
        "Name[mk]": "Безбедност",
        "Name[mr]": "सुरक्षा",
        "Name[ms]": "Keselamatan",
        "Name[nb]": "Sikkerhet",
        "Name[nds]": "Sekerheit",
        "Name[ne]": "सुरक्षा",
        "Name[nl]": "Beveiliging",
        "Name[nn]": "Tryggleik",
        "Name[pa]": "ਸੁਰੱਖਿਆ",
        "Name[pl]": "Bezpieczeństwo",
        "Name[pt]": "Segurança",
        "Name[pt_BR]": "Segurança",
        "Name[ro]": "Securitate",
        "Name[ru]": "Безопасность",
        "Name[se]": "Sihkarvuohta",
        "Name[sk]": "Zabezpečenie",
        "Name[sl]": "Varnost",
        "Name[sr@ijekavian]": "Безбедност",
        "Name[sr@ijekavianlatin]": "Bezbednost",
        "Name[sr@latin]": "Bezbednost",
        "Name[sr]": "Безбедност",
        "Name[sv]": "Säkerhet",
        "Name[ta]": "பாதுகாப்பு",
        "Name[tg]": "Амният",
        "Name[th]": "ความปลอดภัย",
        "Name[tr]": "Güvenlik",
        "Name[ug]": "بىخەتەرلىك",
        "Name[uk]": "Безпека",
        "Name[uz@cyrillic]": "Хавфсизлик",
        "Name[uz]": "Xavfsizlik",
        "Name[wa]": "Såvrité",
        "Name[x-test]": "xxSecurityxx",
        "Name[zh_CN]": "安全",
        "Name[zh_TW]": "安全性",
        "ServiceTypes": [
            "KCModule"
        ]
    },
    "X-DocPath": "kmail2/index.html#configure-security",
    "X-KDE-Weight": 500
}
